byte idade: 25;
word nome: 'e';
bool isValid: TRUE;

byte $sexo: 1;

byte vec[5];
byte vec2[5]: 1 2 'a' TRUE 7;

word returnIdade(word idade2,byte t)
{
    idade = 40;
    nome = vec2[2];
    idade = IMC();
}

byte IMC(byte idade, byte t)
word i:0;
{
    idade = CalculaIMC(nome,idade);
    loop ( ; i<10; )//erro no ++i
    {
    vec[i+2] = incn(vec[i],1);
    };
}

byte CalculaIMC()
{
    nome = 'f';
}
