byte idade : 25;
word nome : 'e';
bool isValid : TRUE;
byte $sexo : 1;
byte vec[5];
byte vec2[5] : 1 2 'a' TRUE 7 ;
word returnIdade()
{
idade = 40 + 50;
nome = vec2[2];
idade = IMC();
output "nome";
}
byte IMC(byte n)
word i : 0;
{
idade = CalculaIMC(nome, idade);
loop(;i < 10;)
{
vec[i + 2] = CalculaIMC(vec[i], 1);
};
}
byte CalculaIMC()
{
nome = 'f';
}
